{
    "asset" : {
        "generator" : "Khronos glTF Blender I/O v1.2.75",
        "version" : "2.0"
    },
    "scene" : 0,
    "scenes" : [
        {
            "name" : "Scene",
            "nodes" : [
                1
            ]
        }
    ],
    "nodes" : [
        {
            "name" : "collider-rigid",
            "scale" : [
                0.09894593060016632,
                0.09894593060016632,
                0.09894593060016632
            ]
        },
        {
            "children" : [
                0
            ],
            "mesh" : 0,
            "name" : "Cylinder"
        }
    ],
    "materials" : [
        {
            "doubleSided" : true,
            "emissiveFactor" : [
                0,
                0,
                0
            ],
            "name" : "Grapple Metal",
            "pbrMetallicRoughness" : {
                "baseColorFactor" : [
                    0.30748653411865234,
                    0.30748653411865234,
                    0.30748653411865234,
                    1
                ],
                "metallicFactor" : 0.20909088850021362,
                "roughnessFactor" : 0.18636366724967957
            }
        }
    ],
    "meshes" : [
        {
            "name" : "Cylinder",
            "primitives" : [
                {
                    "attributes" : {
                        "POSITION" : 0,
                        "NORMAL" : 1,
                        "TEXCOORD_0" : 2
                    },
                    "indices" : 3,
                    "material" : 0
                }
            ]
        }
    ],
    "accessors" : [
        {
            "bufferView" : 0,
            "componentType" : 5126,
            "count" : 95,
            "max" : [
                0.07975207269191742,
                0.17320632934570312,
                0.07975227385759354
            ],
            "min" : [
                -0.07975217700004578,
                -0.28209763765335083,
                -0.07975197583436966
            ],
            "type" : "VEC3"
        },
        {
            "bufferView" : 1,
            "componentType" : 5126,
            "count" : 95,
            "type" : "VEC3"
        },
        {
            "bufferView" : 2,
            "componentType" : 5126,
            "count" : 95,
            "type" : "VEC2"
        },
        {
            "bufferView" : 3,
            "componentType" : 5123,
            "count" : 330,
            "type" : "SCALAR"
        }
    ],
    "bufferViews" : [
        {
            "buffer" : 0,
            "byteLength" : 1140,
            "byteOffset" : 0
        },
        {
            "buffer" : 0,
            "byteLength" : 1140,
            "byteOffset" : 1140
        },
        {
            "buffer" : 0,
            "byteLength" : 760,
            "byteOffset" : 2280
        },
        {
            "buffer" : 0,
            "byteLength" : 660,
            "byteOffset" : 3040
        }
    ],
    "buffers" : [
        {
            "byteLength" : 3700,
            "uri" : "grapple.bin"
        }
    ]
}
